[gd_scene load_steps=2 format=2]

[sub_resource type="Environment" id=1]
background_mode = 1
background_color = Color( 0.00392157, 0.207843, 0.741176, 1 )

[node name="Map" type="Node2D"]

[node name="WorldEnvironment" type="WorldEnvironment" parent="."]
environment = SubResource( 1 )
