[gd_resource type="StyleBoxFlat" format=2]

[resource]
content_margin_left = 15.0
content_margin_right = 15.0
content_margin_top = 6.0
content_margin_bottom = 6.0
draw_center = false
corner_radius_top_right = 10
corner_radius_bottom_left = 10
shadow_color = Color( 1, 1, 1, 0.6 )
shadow_size = 10
