[gd_scene load_steps=22 format=2]

[ext_resource path="res://assets/shaders/Iridescence.tres" type="Shader" id=1]
[ext_resource path="res://Props/Collectibles/MoneyPickup.gd" type="Script" id=2]
[ext_resource path="res://Props/Collectibles/moneyicon.png" type="Texture" id=3]

[sub_resource type="PhysicsMaterial" id=1]
bounce = 0.6

[sub_resource type="ArrayMesh" id=2]
surfaces/0 = {
"aabb": AABB( -0.111498, -0.168333, -0.152612, 0.283101, 0.251667, 0.305225 ),
"array_data": PoolByteArray( 147, 79, 41, 189, 4, 222, 133, 61, 104, 70, 28, 190, 39, 250, 136, 0, 218, 145, 37, 61, 218, 220, 41, 190, 149, 71, 52, 188, 65, 179, 180, 0, 63, 3, 47, 188, 218, 220, 41, 190, 44, 236, 37, 189, 33, 179, 162, 0, 1, 110, 154, 189, 19, 196, 140, 60, 104, 70, 28, 190, 19, 221, 136, 0, 48, 18, 47, 62, 76, 190, 118, 60, 151, 37, 226, 59, 114, 207, 25, 0, 38, 69, 47, 61, 245, 50, 42, 190, 151, 37, 226, 59, 84, 166, 25, 0, 39, 69, 47, 61, 245, 50, 42, 190, 151, 37, 226, 187, 84, 166, 231, 0, 48, 18, 47, 62, 74, 190, 118, 60, 151, 37, 226, 187, 114, 207, 231, 0, 74, 8, 55, 189, 112, 81, 166, 61, 27, 21, 20, 62, 20, 90, 86, 0, 45, 182, 38, 189, 178, 60, 143, 61, 72, 38, 27, 62, 35, 49, 111, 0, 207, 51, 27, 62, 178, 60, 143, 61, 45, 236, 37, 61, 78, 49, 86, 0, 72, 31, 23, 62, 112, 81, 166, 61, 122, 167, 9, 61, 64, 90, 60, 0, 72, 31, 23, 62, 112, 81, 166, 61, 122, 167, 9, 189, 64, 90, 196, 0, 207, 51, 27, 62, 178, 60, 143, 61, 44, 236, 37, 189, 78, 49, 170, 0, 45, 182, 38, 189, 178, 60, 143, 61, 72, 38, 27, 190, 35, 49, 145, 0, 74, 8, 55, 189, 112, 81, 166, 61, 27, 21, 20, 190, 20, 90, 170, 0, 108, 186, 210, 189, 112, 81, 166, 61, 121, 86, 227, 189, 172, 90, 231, 0, 136, 12, 227, 189, 178, 60, 143, 61, 121, 86, 227, 189, 142, 49, 231, 0, 136, 12, 227, 189, 178, 60, 143, 61, 121, 86, 227, 61, 142, 49, 25, 0, 108, 186, 210, 189, 112, 81, 166, 61, 121, 86, 227, 61, 172, 90, 25, 0, 95, 131, 55, 189, 119, 227, 138, 61, 104, 70, 28, 190, 237, 35, 136, 0, 232, 135, 161, 189, 222, 217, 160, 60, 104, 70, 28, 190, 217, 6, 136, 0, 198, 224, 205, 189, 56, 165, 165, 61, 18, 189, 235, 189, 191, 77, 180, 0, 225, 110, 74, 189, 56, 165, 165, 61, 27, 21, 20, 190, 223, 77, 162, 0, 71, 204, 224, 189, 120, 227, 138, 61, 18, 189, 235, 61, 162, 35, 76, 0, 43, 233, 189, 189, 222, 217, 160, 60, 27, 21, 20, 62, 172, 6, 94, 0, 225, 110, 74, 189, 56, 165, 165, 61, 27, 21, 20, 62, 223, 77, 94, 0, 199, 224, 205, 189, 56, 165, 165, 61, 18, 189, 235, 61, 191, 77, 76, 0, 15, 242, 45, 62, 20, 196, 140, 60, 149, 71, 52, 188, 94, 221, 180, 0, 129, 128, 28, 62, 4, 222, 133, 61, 44, 236, 37, 189, 84, 250, 162, 0, 251, 70, 30, 62, 119, 227, 138, 61, 123, 159, 25, 61, 113, 35, 43, 0, 137, 184, 47, 62, 222, 217, 160, 60, 208, 20, 3, 60, 124, 6, 25, 0, 138, 184, 47, 62, 224, 217, 160, 60, 208, 20, 3, 188, 124, 6, 231, 0, 251, 70, 30, 62, 119, 227, 138, 61, 123, 159, 25, 189, 113, 35, 213, 0, 58, 89, 228, 189, 4, 222, 133, 61, 186, 150, 229, 61, 132, 250, 25, 0, 18, 162, 243, 188, 218, 220, 41, 190, 144, 180, 241, 188, 158, 179, 239, 0, 16, 162, 243, 188, 218, 220, 41, 190, 142, 180, 241, 60, 158, 179, 17, 0, 30, 118, 193, 189, 18, 196, 140, 60, 239, 1, 17, 62, 143, 221, 43, 0, 231, 135, 161, 189, 222, 217, 160, 60, 104, 70, 28, 62, 217, 6, 120, 0, 95, 131, 55, 189, 119, 227, 138, 61, 104, 70, 28, 62, 237, 35, 120, 0, 40, 255, 21, 62, 171, 170, 170, 61, 144, 180, 241, 188, 40, 119, 239, 0, 251, 84, 67, 189, 171, 170, 170, 61, 239, 1, 17, 190, 252, 119, 213, 0, 211, 83, 202, 189, 171, 170, 170, 61, 186, 150, 229, 189, 221, 119, 231, 0, 40, 255, 21, 62, 171, 170, 170, 61, 144, 180, 241, 60, 40, 119, 17, 0, 129, 128, 28, 62, 4, 222, 133, 61, 45, 236, 37, 61, 84, 250, 94, 0, 67, 3, 47, 188, 218, 220, 41, 190, 45, 236, 37, 61, 33, 179, 94, 0, 216, 145, 37, 61, 218, 220, 41, 190, 149, 71, 52, 60, 65, 179, 76, 0, 16, 242, 45, 62, 20, 196, 140, 60, 151, 71, 52, 60, 94, 221, 76, 0, 155, 212, 162, 189, 74, 190, 118, 60, 72, 38, 27, 190, 221, 207, 145, 0, 164, 157, 124, 188, 245, 50, 42, 190, 45, 236, 37, 189, 236, 166, 170, 0, 123, 59, 224, 188, 245, 50, 42, 190, 123, 167, 9, 189, 192, 166, 196, 0, 197, 79, 187, 189, 74, 190, 118, 60, 27, 21, 20, 190, 178, 207, 170, 0, 121, 58, 215, 188, 147, 95, 44, 190, 145, 180, 241, 188, 216, 137, 239, 0, 220, 106, 75, 188, 147, 95, 44, 190, 124, 159, 25, 189, 4, 137, 213, 0, 244, 119, 30, 61, 147, 95, 44, 190, 206, 20, 3, 188, 35, 137, 231, 0, 121, 58, 215, 188, 147, 95, 44, 190, 144, 180, 241, 60, 216, 137, 17, 0, 30, 118, 193, 189, 18, 196, 140, 60, 239, 1, 17, 190, 143, 221, 213, 0, 58, 89, 228, 189, 4, 222, 133, 61, 186, 150, 229, 189, 132, 250, 231, 0, 122, 59, 224, 188, 245, 50, 42, 190, 123, 167, 9, 61, 192, 166, 60, 0, 164, 157, 124, 188, 245, 50, 42, 190, 45, 236, 37, 61, 236, 166, 86, 0, 155, 212, 162, 189, 74, 190, 118, 60, 72, 38, 27, 62, 221, 207, 111, 0, 197, 79, 187, 189, 77, 190, 118, 60, 27, 21, 20, 62, 178, 207, 86, 0, 1, 110, 154, 189, 19, 196, 140, 60, 104, 70, 28, 62, 19, 221, 120, 0, 148, 79, 41, 189, 4, 222, 133, 61, 104, 70, 28, 62, 39, 250, 120, 0, 27, 140, 25, 62, 56, 165, 165, 61, 146, 180, 241, 60, 98, 77, 17, 0, 27, 140, 25, 62, 56, 165, 165, 61, 147, 180, 241, 188, 98, 77, 239, 0, 211, 83, 202, 189, 171, 170, 170, 61, 186, 150, 229, 61, 221, 119, 25, 0, 251, 84, 67, 189, 171, 170, 170, 61, 239, 1, 17, 62, 252, 119, 43, 0, 43, 233, 189, 189, 222, 217, 160, 60, 27, 21, 20, 190, 172, 6, 162, 0, 71, 204, 224, 189, 120, 227, 138, 61, 18, 189, 235, 189, 162, 35, 180, 0, 220, 106, 75, 188, 147, 95, 44, 190, 124, 159, 25, 61, 4, 137, 43, 0, 244, 119, 30, 61, 147, 95, 44, 190, 204, 20, 3, 60, 35, 137, 25, 0 ),
"array_index_data": PoolByteArray( 0, 0, 2, 0, 1, 0, 0, 0, 3, 0, 2, 0, 4, 0, 6, 0, 5, 0, 4, 0, 7, 0, 6, 0, 8, 0, 10, 0, 9, 0, 8, 0, 11, 0, 10, 0, 12, 0, 14, 0, 13, 0, 12, 0, 15, 0, 14, 0, 16, 0, 18, 0, 17, 0, 16, 0, 19, 0, 18, 0, 20, 0, 22, 0, 21, 0, 23, 0, 22, 0, 20, 0, 24, 0, 26, 0, 25, 0, 27, 0, 26, 0, 24, 0, 28, 0, 0, 0, 1, 0, 29, 0, 0, 0, 28, 0, 30, 0, 32, 0, 31, 0, 30, 0, 33, 0, 32, 0, 34, 0, 36, 0, 35, 0, 34, 0, 37, 0, 36, 0, 26, 0, 38, 0, 25, 0, 26, 0, 39, 0, 38, 0, 40, 0, 42, 0, 41, 0, 40, 0, 43, 0, 42, 0, 44, 0, 46, 0, 45, 0, 44, 0, 47, 0, 46, 0, 48, 0, 50, 0, 49, 0, 48, 0, 51, 0, 50, 0, 52, 0, 54, 0, 53, 0, 55, 0, 54, 0, 52, 0, 56, 0, 34, 0, 35, 0, 57, 0, 34, 0, 56, 0, 58, 0, 60, 0, 59, 0, 61, 0, 60, 0, 58, 0, 62, 0, 44, 0, 45, 0, 63, 0, 44, 0, 62, 0, 64, 0, 33, 0, 30, 0, 64, 0, 65, 0, 33, 0, 43, 0, 66, 0, 42, 0, 67, 0, 66, 0, 43, 0, 22, 0, 68, 0, 21, 0, 22, 0, 69, 0, 68, 0, 1, 0, 54, 0, 6, 0, 49, 0, 53, 0, 2, 0, 50, 0, 35, 0, 52, 0, 36, 0, 58, 0, 55, 0, 59, 0, 45, 0, 70, 0, 46, 0, 5, 0, 71, 0, 29, 0, 33, 0, 13, 0, 7, 0, 32, 0, 28, 0, 4, 0, 47, 0, 31, 0, 30, 0, 44, 0, 10, 0, 11, 0, 43, 0, 64, 0, 40, 0, 12, 0, 65, 0, 3, 0, 21, 0, 48, 0, 14, 0, 20, 0, 0, 0, 15, 0, 41, 0, 23, 0, 22, 0, 42, 0, 16, 0, 17, 0, 57, 0, 69, 0, 56, 0, 51, 0, 68, 0, 37, 0, 25, 0, 61, 0, 18, 0, 24, 0, 34, 0, 19, 0, 66, 0, 27, 0, 67, 0, 8, 0, 26, 0, 9, 0, 63, 0, 39, 0, 62, 0, 60, 0, 38, 0, 49, 0, 52, 0, 53, 0, 49, 0, 50, 0, 52, 0, 35, 0, 55, 0, 52, 0, 35, 0, 36, 0, 55, 0, 1, 0, 53, 0, 54, 0, 1, 0, 2, 0, 53, 0, 55, 0, 59, 0, 70, 0, 58, 0, 59, 0, 55, 0, 45, 0, 71, 0, 70, 0, 45, 0, 46, 0, 71, 0, 5, 0, 54, 0, 71, 0, 5, 0, 6, 0, 54, 0, 4, 0, 32, 0, 7, 0, 31, 0, 32, 0, 4, 0, 44, 0, 31, 0, 47, 0, 44, 0, 30, 0, 31, 0, 32, 0, 29, 0, 28, 0, 33, 0, 29, 0, 32, 0, 10, 0, 64, 0, 30, 0, 11, 0, 64, 0, 10, 0, 43, 0, 65, 0, 64, 0, 43, 0, 40, 0, 65, 0, 65, 0, 13, 0, 33, 0, 65, 0, 12, 0, 13, 0, 14, 0, 23, 0, 20, 0, 15, 0, 23, 0, 14, 0, 41, 0, 22, 0, 23, 0, 41, 0, 42, 0, 22, 0, 0, 0, 21, 0, 3, 0, 0, 0, 20, 0, 21, 0, 22, 0, 17, 0, 69, 0, 22, 0, 16, 0, 17, 0, 68, 0, 57, 0, 56, 0, 69, 0, 57, 0, 68, 0, 21, 0, 51, 0, 48, 0, 21, 0, 68, 0, 51, 0, 18, 0, 27, 0, 24, 0, 19, 0, 27, 0, 18, 0, 66, 0, 26, 0, 27, 0, 66, 0, 67, 0, 26, 0, 34, 0, 25, 0, 37, 0, 34, 0, 24, 0, 25, 0, 26, 0, 9, 0, 39, 0, 26, 0, 8, 0, 9, 0, 38, 0, 63, 0, 62, 0, 39, 0, 63, 0, 38, 0, 61, 0, 38, 0, 60, 0, 25, 0, 38, 0, 61, 0, 46, 0, 4, 0, 5, 0, 47, 0, 4, 0, 46, 0, 7, 0, 1, 0, 6, 0, 7, 0, 28, 0, 1, 0, 40, 0, 15, 0, 12, 0, 40, 0, 41, 0, 15, 0, 29, 0, 14, 0, 0, 0, 13, 0, 14, 0, 29, 0, 2, 0, 48, 0, 49, 0, 3, 0, 48, 0, 2, 0, 51, 0, 35, 0, 50, 0, 51, 0, 56, 0, 35, 0, 42, 0, 19, 0, 16, 0, 42, 0, 66, 0, 19, 0, 17, 0, 34, 0, 57, 0, 17, 0, 18, 0, 34, 0, 9, 0, 44, 0, 63, 0, 9, 0, 10, 0, 44, 0, 8, 0, 43, 0, 11, 0, 67, 0, 43, 0, 8, 0, 36, 0, 61, 0, 58, 0, 37, 0, 61, 0, 36, 0, 60, 0, 45, 0, 59, 0, 60, 0, 62, 0, 45, 0, 55, 0, 71, 0, 54, 0, 55, 0, 70, 0, 71, 0 ),
"blend_shape_data": [  ],
"format": 97539,
"index_count": 420,
"primitive": 4,
"skeleton_aabb": [  ],
"vertex_count": 72
}

[sub_resource type="Gradient" id=3]
offsets = PoolRealArray( 0, 0.220544, 0.280967, 0.302115, 0.329305, 0.383686, 0.486405 )
colors = PoolColorArray( 1, 0, 0, 1, 0.601563, 0, 0, 1, 0.668113, 0.147899, 0.0712077, 1, 1, 1, 1, 1, 0.721354, 0.266218, 0.128174, 1, 0.78125, 0.399327, 0.192261, 1, 0.265625, 0, 0, 1 )

[sub_resource type="GradientTexture" id=4]
gradient = SubResource( 3 )

[sub_resource type="ShaderMaterial" id=5]
shader = ExtResource( 1 )
shader_param/Gradient = SubResource( 4 )

[sub_resource type="ArrayMesh" id=6]
surfaces/0 = {
"aabb": AABB( -0.170222, -0.281176, -0.193907, 0.340445, 0.562352, 0.387813 ),
"array_data": PoolByteArray( 10, 214, 178, 59, 242, 207, 240, 188, 231, 11, 70, 190, 28, 30, 136, 0, 127, 0, 0, 127, 0, 0, 0, 60, 10, 214, 178, 59, 82, 246, 143, 62, 243, 109, 10, 188, 31, 105, 194, 0, 127, 0, 0, 127, 0, 0, 0, 60, 245, 155, 41, 62, 54, 8, 36, 61, 196, 178, 206, 189, 82, 39, 168, 0, 127, 0, 0, 127, 0, 0, 0, 60, 192, 78, 46, 62, 54, 8, 36, 61, 44, 108, 190, 189, 117, 39, 229, 0, 127, 0, 0, 127, 0, 0, 0, 60, 182, 151, 36, 60, 82, 246, 143, 62, 128, 147, 3, 186, 70, 105, 4, 0, 127, 0, 0, 129, 0, 0, 0, 60, 192, 78, 46, 62, 240, 207, 240, 188, 222, 93, 188, 61, 118, 30, 35, 0, 127, 0, 0, 129, 0, 0, 0, 60, 245, 155, 41, 190, 54, 8, 36, 61, 197, 178, 206, 189, 174, 39, 168, 0, 127, 0, 0, 127, 0, 0, 0, 60, 14, 214, 178, 187, 82, 246, 143, 62, 250, 109, 10, 188, 225, 105, 194, 0, 127, 0, 0, 127, 0, 0, 0, 60, 10, 214, 178, 187, 241, 207, 240, 188, 231, 11, 70, 190, 228, 30, 136, 0, 127, 0, 0, 127, 0, 0, 0, 60, 16, 184, 40, 190, 242, 207, 240, 60, 236, 185, 207, 189, 167, 226, 172, 0, 127, 0, 0, 127, 0, 0, 0, 60, 81, 89, 150, 187, 54, 8, 36, 189, 122, 143, 70, 190, 221, 217, 141, 0, 127, 0, 0, 127, 0, 0, 0, 60, 92, 89, 150, 187, 82, 246, 143, 190, 51, 167, 18, 188, 218, 151, 198, 0, 127, 0, 0, 127, 0, 0, 0, 60, 48, 89, 150, 187, 54, 8, 36, 61, 122, 143, 70, 62, 221, 39, 115, 0, 127, 0, 0, 129, 0, 0, 0, 60, 90, 89, 150, 187, 82, 246, 143, 62, 51, 167, 18, 60, 218, 105, 58, 0, 127, 0, 0, 129, 0, 0, 0, 60, 14, 184, 40, 190, 242, 207, 240, 188, 239, 185, 207, 61, 167, 30, 84, 0, 127, 0, 0, 129, 0, 0, 0, 60, 16, 184, 40, 62, 241, 207, 240, 188, 235, 185, 207, 61, 89, 30, 84, 0, 127, 0, 0, 129, 0, 0, 0, 60, 84, 89, 150, 59, 82, 246, 143, 62, 46, 167, 18, 60, 38, 105, 58, 0, 127, 0, 0, 129, 0, 0, 0, 60, 128, 89, 150, 59, 55, 8, 36, 61, 122, 143, 70, 62, 35, 39, 115, 0, 127, 0, 0, 129, 0, 0, 0, 60, 245, 155, 41, 62, 54, 8, 36, 189, 196, 178, 206, 61, 82, 217, 88, 0, 127, 0, 0, 129, 0, 0, 0, 60, 44, 214, 178, 59, 242, 207, 240, 60, 231, 11, 70, 62, 28, 226, 120, 0, 127, 0, 0, 129, 0, 0, 0, 60, 12, 214, 178, 59, 82, 246, 143, 190, 244, 109, 10, 60, 31, 151, 62, 0, 127, 0, 0, 129, 0, 0, 0, 60, 91, 89, 150, 59, 55, 8, 36, 189, 122, 143, 70, 190, 35, 217, 141, 0, 127, 0, 0, 127, 0, 0, 0, 60, 16, 184, 40, 62, 241, 207, 240, 60, 235, 185, 207, 189, 89, 226, 172, 0, 127, 0, 0, 127, 0, 0, 0, 60, 84, 89, 150, 59, 82, 246, 143, 190, 46, 167, 18, 188, 38, 151, 198, 0, 127, 0, 0, 127, 0, 0, 0, 60, 191, 78, 46, 190, 54, 8, 36, 189, 48, 108, 190, 61, 139, 217, 27, 0, 127, 0, 0, 129, 0, 0, 0, 60, 192, 78, 46, 190, 242, 207, 240, 60, 223, 93, 188, 189, 138, 226, 221, 0, 127, 0, 0, 127, 0, 0, 0, 60, 175, 151, 36, 188, 82, 246, 143, 190, 168, 147, 3, 58, 186, 151, 252, 0, 127, 0, 0, 127, 0, 0, 0, 60, 192, 78, 46, 62, 240, 207, 240, 60, 222, 93, 188, 189, 118, 226, 221, 0, 127, 0, 0, 127, 0, 0, 0, 60, 192, 78, 46, 62, 54, 8, 36, 189, 44, 108, 190, 61, 117, 217, 27, 0, 127, 0, 0, 129, 0, 0, 0, 60, 182, 151, 36, 60, 82, 246, 143, 190, 128, 147, 3, 58, 70, 151, 252, 0, 127, 0, 0, 127, 0, 0, 0, 60, 229, 213, 178, 187, 242, 207, 240, 60, 231, 11, 70, 62, 228, 226, 120, 0, 127, 0, 0, 129, 0, 0, 0, 60, 244, 155, 41, 190, 54, 8, 36, 189, 200, 178, 206, 61, 174, 217, 88, 0, 127, 0, 0, 129, 0, 0, 0, 60, 12, 214, 178, 187, 82, 246, 143, 190, 251, 109, 10, 60, 225, 151, 62, 0, 127, 0, 0, 129, 0, 0, 0, 60, 174, 151, 36, 188, 82, 246, 143, 62, 136, 147, 3, 186, 186, 105, 4, 0, 127, 0, 0, 129, 0, 0, 0, 60, 192, 78, 46, 190, 53, 8, 36, 61, 44, 108, 190, 189, 139, 39, 229, 0, 127, 0, 0, 127, 0, 0, 0, 60, 191, 78, 46, 190, 242, 207, 240, 188, 226, 93, 188, 61, 138, 30, 35, 0, 127, 0, 0, 129, 0, 0, 0, 60 ),
"array_index_data": PoolByteArray( 0, 0, 2, 0, 1, 0, 3, 0, 5, 0, 4, 0, 6, 0, 8, 0, 7, 0, 9, 0, 11, 0, 10, 0, 12, 0, 14, 0, 13, 0, 15, 0, 17, 0, 16, 0, 18, 0, 20, 0, 19, 0, 21, 0, 23, 0, 22, 0, 24, 0, 26, 0, 25, 0, 27, 0, 29, 0, 28, 0, 30, 0, 32, 0, 31, 0, 1, 0, 33, 0, 7, 0, 4, 0, 33, 0, 1, 0, 4, 0, 13, 0, 33, 0, 16, 0, 13, 0, 4, 0, 0, 0, 10, 0, 21, 0, 0, 0, 8, 0, 10, 0, 6, 0, 25, 0, 9, 0, 6, 0, 34, 0, 25, 0, 35, 0, 31, 0, 24, 0, 35, 0, 14, 0, 31, 0, 12, 0, 19, 0, 30, 0, 12, 0, 17, 0, 19, 0, 15, 0, 28, 0, 18, 0, 15, 0, 5, 0, 28, 0, 3, 0, 22, 0, 27, 0, 3, 0, 2, 0, 22, 0, 26, 0, 23, 0, 11, 0, 26, 0, 29, 0, 23, 0, 26, 0, 20, 0, 29, 0, 32, 0, 20, 0, 26, 0, 8, 0, 9, 0, 10, 0, 6, 0, 9, 0, 8, 0, 25, 0, 35, 0, 24, 0, 25, 0, 34, 0, 35, 0, 14, 0, 30, 0, 31, 0, 12, 0, 30, 0, 14, 0, 19, 0, 15, 0, 18, 0, 19, 0, 17, 0, 15, 0, 5, 0, 27, 0, 28, 0, 3, 0, 27, 0, 5, 0, 22, 0, 0, 0, 21, 0, 22, 0, 2, 0, 0, 0, 33, 0, 14, 0, 35, 0, 33, 0, 13, 0, 14, 0, 27, 0, 23, 0, 29, 0, 27, 0, 22, 0, 23, 0, 13, 0, 17, 0, 12, 0, 13, 0, 16, 0, 17, 0, 1, 0, 8, 0, 0, 0, 1, 0, 7, 0, 8, 0, 7, 0, 34, 0, 6, 0, 7, 0, 33, 0, 34, 0, 4, 0, 2, 0, 3, 0, 4, 0, 1, 0, 2, 0, 16, 0, 5, 0, 15, 0, 16, 0, 4, 0, 5, 0, 24, 0, 32, 0, 26, 0, 24, 0, 31, 0, 32, 0, 30, 0, 20, 0, 32, 0, 30, 0, 19, 0, 20, 0, 21, 0, 11, 0, 23, 0, 21, 0, 10, 0, 11, 0, 9, 0, 26, 0, 11, 0, 9, 0, 25, 0, 26, 0, 18, 0, 29, 0, 20, 0, 18, 0, 28, 0, 29, 0, 35, 0, 34, 0, 33, 0 ),
"blend_shape_data": [  ],
"format": 97559,
"index_count": 204,
"primitive": 4,
"skeleton_aabb": [  ],
"vertex_count": 36
}

[sub_resource type="Gradient" id=7]
offsets = PoolRealArray( 0, 0.166163, 0.280967, 0.302115, 0.383686, 0.486405 )
colors = PoolColorArray( 0, 0.53125, 1, 1, 0, 0.291382, 0.601563, 1, 0.0712077, 0.556194, 0.668113, 1, 1, 1, 1, 1, 0.192261, 0.505161, 0.78125, 1, 0, 0.203369, 0.265625, 1 )

[sub_resource type="GradientTexture" id=8]
gradient = SubResource( 7 )

[sub_resource type="ShaderMaterial" id=9]
shader = ExtResource( 1 )
shader_param/Gradient = SubResource( 8 )

[sub_resource type="ArrayMesh" id=10]
surfaces/0 = {
"aabb": AABB( -0.190526, -0.43639, -0.216442, 0.381051, 0.87278, 0.432885 ),
"array_data": PoolByteArray( 74, 80, 217, 59, 126, 110, 223, 190, 252, 50, 60, 60, 27, 142, 47, 0, 123, 29, 0, 129, 14, 58, 25, 58, 56, 73, 55, 62, 205, 163, 130, 190, 224, 82, 227, 61, 73, 184, 74, 0, 94, 83, 244, 129, 143, 59, 247, 58, 39, 80, 217, 59, 205, 163, 130, 190, 176, 143, 87, 62, 27, 184, 100, 0, 122, 33, 247, 129, 14, 58, 214, 59, 78, 80, 89, 60, 126, 110, 223, 62, 0, 0, 128, 48, 55, 114, 0, 0, 114, 201, 0, 127, 59, 52, 0, 58, 186, 19, 62, 62, 205, 163, 130, 62, 130, 204, 203, 61, 101, 72, 26, 0, 74, 154, 251, 127, 61, 55, 222, 58, 187, 19, 62, 62, 205, 163, 130, 62, 127, 204, 203, 189, 101, 72, 230, 0, 74, 154, 5, 127, 61, 55, 33, 57, 20, 235, 201, 187, 194, 182, 120, 62, 15, 163, 93, 190, 226, 26, 136, 0, 134, 2, 32, 127, 133, 29, 73, 31, 22, 235, 201, 187, 194, 182, 120, 190, 15, 163, 93, 190, 226, 230, 136, 0, 134, 254, 32, 127, 133, 29, 226, 55, 203, 201, 60, 190, 194, 182, 120, 190, 233, 144, 232, 189, 168, 230, 170, 0, 167, 2, 90, 127, 41, 49, 226, 55, 203, 201, 60, 190, 194, 182, 120, 62, 233, 144, 232, 189, 168, 26, 170, 0, 167, 254, 90, 127, 41, 49, 73, 31, 77, 80, 217, 59, 126, 110, 223, 190, 251, 50, 60, 188, 27, 142, 209, 0, 123, 29, 0, 129, 14, 58, 230, 57, 69, 80, 217, 59, 205, 163, 130, 190, 175, 143, 87, 190, 27, 184, 156, 0, 122, 33, 9, 129, 14, 58, 41, 56, 56, 73, 55, 62, 205, 163, 130, 190, 223, 82, 227, 189, 73, 184, 182, 0, 94, 83, 12, 129, 143, 59, 8, 57, 77, 80, 217, 59, 126, 110, 223, 62, 252, 50, 60, 60, 27, 114, 47, 0, 123, 227, 0, 127, 29, 52, 25, 58, 32, 80, 217, 59, 205, 163, 130, 62, 176, 143, 87, 62, 27, 72, 100, 0, 122, 223, 247, 127, 29, 52, 214, 59, 56, 73, 55, 62, 205, 163, 130, 62, 226, 82, 227, 61, 73, 72, 74, 0, 94, 173, 244, 127, 31, 55, 247, 58, 236, 234, 201, 59, 194, 182, 120, 62, 15, 163, 93, 62, 30, 26, 120, 0, 122, 2, 224, 127, 11, 56, 73, 31, 238, 234, 201, 59, 194, 182, 120, 190, 15, 163, 93, 62, 30, 230, 120, 0, 122, 254, 224, 127, 11, 56, 226, 55, 203, 201, 60, 62, 194, 182, 120, 190, 238, 144, 232, 61, 88, 230, 86, 0, 89, 2, 166, 127, 74, 57, 226, 55, 203, 201, 60, 62, 194, 182, 120, 62, 238, 144, 232, 61, 88, 26, 86, 0, 89, 254, 166, 127, 74, 57, 73, 31, 79, 80, 217, 187, 126, 110, 223, 190, 252, 50, 60, 60, 229, 142, 47, 0, 123, 227, 0, 129, 241, 57, 25, 58, 110, 80, 217, 187, 205, 163, 130, 190, 175, 143, 87, 62, 229, 184, 100, 0, 122, 223, 9, 129, 241, 57, 214, 59, 56, 73, 55, 190, 205, 163, 130, 190, 221, 82, 227, 61, 183, 184, 74, 0, 94, 173, 12, 129, 112, 56, 247, 58, 79, 80, 217, 187, 126, 110, 223, 62, 252, 50, 60, 60, 229, 114, 47, 0, 123, 29, 0, 127, 196, 51, 25, 58, 56, 73, 55, 190, 205, 163, 130, 62, 220, 82, 227, 61, 183, 72, 74, 0, 94, 83, 12, 127, 1, 43, 247, 58, 118, 80, 217, 187, 205, 163, 130, 62, 176, 143, 87, 62, 229, 72, 100, 0, 122, 33, 9, 127, 196, 51, 214, 59, 203, 201, 60, 190, 194, 182, 120, 62, 233, 144, 232, 61, 168, 26, 86, 0, 89, 2, 90, 127, 107, 53, 73, 31, 203, 201, 60, 190, 194, 182, 120, 190, 233, 144, 232, 61, 168, 230, 86, 0, 89, 254, 90, 127, 107, 53, 226, 55, 60, 235, 201, 187, 194, 182, 120, 190, 15, 163, 93, 62, 226, 230, 120, 0, 122, 2, 32, 127, 233, 55, 226, 55, 62, 235, 201, 187, 194, 182, 120, 62, 15, 163, 93, 62, 226, 26, 120, 0, 122, 254, 32, 127, 233, 55, 73, 31, 80, 80, 89, 188, 126, 110, 223, 190, 0, 0, 0, 176, 201, 142, 0, 0, 114, 201, 0, 129, 226, 57, 0, 58, 186, 19, 62, 190, 205, 163, 130, 190, 125, 204, 203, 61, 155, 184, 26, 0, 74, 154, 5, 129, 97, 56, 222, 58, 187, 19, 62, 190, 205, 163, 130, 190, 125, 204, 203, 189, 155, 184, 230, 0, 74, 154, 251, 129, 97, 56, 33, 57, 80, 80, 89, 188, 126, 110, 223, 62, 0, 0, 0, 48, 201, 114, 0, 0, 114, 55, 0, 127, 137, 51, 0, 58, 186, 19, 62, 190, 205, 163, 130, 62, 125, 204, 203, 189, 155, 72, 230, 0, 74, 102, 251, 127, 20, 42, 33, 57, 187, 19, 62, 190, 205, 163, 130, 62, 125, 204, 203, 61, 155, 72, 26, 0, 74, 102, 5, 127, 20, 42, 222, 58, 36, 25, 67, 190, 194, 182, 120, 62, 48, 181, 210, 189, 137, 26, 223, 0, 223, 2, 122, 127, 129, 49, 73, 31, 36, 25, 67, 190, 194, 182, 120, 190, 48, 181, 210, 189, 137, 230, 223, 0, 223, 254, 122, 127, 129, 49, 226, 55, 36, 25, 67, 190, 194, 182, 120, 190, 48, 181, 210, 61, 137, 230, 33, 0, 33, 2, 122, 127, 63, 53, 226, 55, 36, 25, 67, 190, 194, 182, 120, 62, 48, 181, 210, 61, 137, 26, 33, 0, 33, 254, 122, 127, 63, 53, 73, 31, 75, 80, 217, 187, 126, 110, 223, 190, 251, 50, 60, 188, 229, 142, 209, 0, 123, 227, 0, 129, 241, 57, 230, 57, 56, 73, 55, 190, 205, 163, 130, 190, 220, 82, 227, 189, 183, 184, 182, 0, 94, 173, 244, 129, 112, 56, 8, 57, 77, 80, 217, 187, 205, 163, 130, 190, 176, 143, 87, 190, 229, 184, 156, 0, 122, 223, 247, 129, 241, 57, 41, 56, 203, 201, 60, 62, 194, 182, 120, 62, 235, 144, 232, 189, 88, 26, 170, 0, 167, 2, 166, 127, 181, 58, 73, 31, 203, 201, 60, 62, 194, 182, 120, 190, 235, 144, 232, 189, 88, 230, 170, 0, 167, 254, 166, 127, 181, 58, 226, 55, 20, 235, 201, 59, 194, 182, 120, 190, 15, 163, 93, 190, 30, 230, 136, 0, 134, 7, 223, 127, 244, 59, 226, 55, 22, 235, 201, 59, 194, 182, 120, 62, 15, 163, 93, 190, 30, 26, 136, 0, 134, 249, 223, 127, 244, 59, 73, 31, 77, 80, 217, 187, 126, 110, 223, 62, 251, 50, 60, 188, 229, 114, 209, 0, 123, 29, 0, 127, 196, 51, 230, 57, 66, 80, 217, 187, 205, 163, 130, 62, 175, 143, 87, 190, 229, 72, 156, 0, 122, 33, 247, 127, 196, 51, 41, 56, 56, 73, 55, 190, 205, 163, 130, 62, 221, 82, 227, 189, 183, 72, 182, 0, 94, 83, 244, 127, 1, 43, 8, 57, 75, 80, 217, 59, 126, 110, 223, 62, 251, 50, 60, 188, 27, 114, 209, 0, 123, 227, 0, 127, 29, 52, 230, 57, 56, 73, 55, 62, 205, 163, 130, 62, 222, 82, 227, 189, 73, 72, 182, 0, 94, 173, 12, 127, 31, 55, 8, 57, 77, 80, 217, 59, 205, 163, 130, 62, 176, 143, 87, 190, 27, 72, 156, 0, 122, 223, 9, 127, 29, 52, 41, 56, 36, 25, 67, 62, 194, 182, 120, 62, 53, 181, 210, 61, 119, 26, 33, 0, 33, 2, 134, 127, 96, 57, 73, 31, 36, 25, 67, 62, 194, 182, 120, 190, 53, 181, 210, 61, 119, 230, 33, 0, 33, 254, 134, 127, 96, 57, 226, 55, 36, 25, 67, 62, 194, 182, 120, 190, 50, 181, 210, 189, 119, 230, 223, 0, 223, 2, 134, 127, 159, 58, 226, 55, 36, 25, 67, 62, 194, 182, 120, 62, 50, 181, 210, 189, 119, 26, 223, 0, 223, 254, 134, 127, 159, 58, 73, 31, 78, 80, 89, 60, 126, 110, 223, 190, 0, 0, 0, 48, 55, 142, 0, 0, 114, 55, 0, 129, 29, 58, 0, 58, 20, 235, 201, 59, 194, 182, 120, 190, 15, 163, 93, 190, 30, 230, 136, 0, 113, 214, 38, 129, 0, 58, 20, 56, 69, 80, 217, 59, 205, 163, 130, 190, 175, 143, 87, 190, 27, 184, 156, 0, 120, 249, 38, 129, 0, 58, 37, 56, 22, 235, 201, 187, 194, 182, 120, 190, 15, 163, 93, 190, 226, 230, 136, 0, 100, 179, 248, 129, 242, 57, 28, 56, 77, 80, 217, 59, 205, 163, 130, 62, 176, 143, 87, 190, 27, 72, 156, 0, 115, 23, 48, 127, 0, 52, 37, 56, 22, 235, 201, 59, 194, 182, 120, 62, 15, 163, 93, 190, 30, 26, 136, 0, 110, 48, 39, 127, 0, 52, 20, 56, 20, 235, 201, 187, 194, 182, 120, 62, 15, 163, 93, 190, 226, 26, 136, 0, 113, 53, 239, 127, 200, 51, 28, 56, 36, 25, 67, 62, 194, 182, 120, 190, 50, 181, 210, 189, 119, 230, 223, 0, 35, 116, 36, 129, 169, 59, 26, 57, 186, 19, 62, 62, 205, 163, 130, 190, 127, 204, 203, 189, 101, 184, 230, 0, 74, 102, 5, 129, 158, 59, 33, 57, 56, 73, 55, 62, 205, 163, 130, 190, 223, 82, 227, 189, 73, 184, 182, 0, 91, 87, 5, 129, 154, 59, 18, 57, 203, 201, 60, 62, 194, 182, 120, 190, 235, 144, 232, 189, 88, 230, 170, 0, 64, 103, 34, 129, 169, 59, 10, 57, 36, 25, 67, 62, 194, 182, 120, 62, 50, 181, 210, 189, 119, 26, 223, 0, 33, 137, 25, 127, 83, 55, 26, 57, 203, 201, 60, 62, 194, 182, 120, 62, 235, 144, 232, 189, 88, 26, 170, 0, 62, 151, 32, 127, 83, 55, 10, 57, 56, 73, 55, 62, 205, 163, 130, 62, 222, 82, 227, 189, 73, 72, 182, 0, 95, 174, 14, 127, 53, 55, 18, 57, 203, 201, 60, 62, 194, 182, 120, 190, 238, 144, 232, 61, 88, 230, 86, 0, 72, 93, 210, 129, 155, 59, 253, 58, 187, 19, 62, 62, 205, 163, 130, 190, 130, 204, 203, 61, 101, 184, 26, 0, 76, 92, 215, 129, 154, 59, 237, 58, 36, 25, 67, 62, 194, 182, 120, 190, 53, 181, 210, 61, 119, 230, 33, 0, 41, 97, 186, 129, 169, 59, 245, 58, 203, 201, 60, 62, 194, 182, 120, 62, 238, 144, 232, 61, 88, 26, 86, 0, 71, 161, 213, 127, 55, 55, 253, 58, 36, 25, 67, 62, 194, 182, 120, 62, 53, 181, 210, 61, 119, 26, 33, 0, 39, 149, 201, 127, 83, 55, 245, 58, 186, 19, 62, 62, 205, 163, 130, 62, 130, 204, 203, 61, 101, 72, 26, 0, 76, 165, 213, 127, 53, 55, 237, 58, 60, 235, 201, 187, 194, 182, 120, 190, 15, 163, 93, 62, 226, 230, 120, 0, 113, 203, 17, 129, 242, 57, 227, 59, 39, 80, 217, 59, 205, 163, 130, 190, 176, 143, 87, 62, 27, 184, 100, 0, 115, 233, 208, 129, 0, 58, 218, 59, 238, 234, 201, 59, 194, 182, 120, 190, 15, 163, 93, 62, 30, 230, 120, 0, 110, 208, 217, 129, 0, 58, 235, 59, 62, 235, 201, 187, 194, 182, 120, 62, 15, 163, 93, 62, 226, 26, 120, 0, 100, 77, 8, 127, 200, 51, 227, 59, 236, 234, 201, 59, 194, 182, 120, 62, 15, 163, 93, 62, 30, 26, 120, 0, 113, 42, 218, 127, 255, 51, 235, 59, 32, 80, 217, 59, 205, 163, 130, 62, 176, 143, 87, 62, 27, 72, 100, 0, 120, 7, 218, 127, 255, 51, 218, 59, 36, 25, 67, 190, 194, 182, 120, 190, 48, 181, 210, 61, 137, 230, 33, 0, 35, 140, 36, 129, 86, 56, 229, 58, 56, 73, 55, 190, 205, 163, 130, 190, 221, 82, 227, 61, 183, 184, 74, 0, 91, 169, 5, 129, 101, 56, 237, 58, 203, 201, 60, 190, 194, 182, 120, 190, 233, 144, 232, 61, 168, 230, 86, 0, 64, 153, 34, 129, 86, 56, 245, 58, 36, 25, 67, 190, 194, 182, 120, 62, 48, 181, 210, 61, 137, 26, 33, 0, 33, 119, 25, 127, 101, 41, 229, 58, 203, 201, 60, 190, 194, 182, 120, 62, 233, 144, 232, 61, 168, 26, 86, 0, 62, 105, 32, 127, 101, 41, 245, 58, 56, 73, 55, 190, 205, 163, 130, 62, 220, 82, 227, 61, 183, 72, 74, 0, 95, 82, 14, 127, 85, 42, 237, 58, 203, 201, 60, 190, 194, 182, 120, 190, 233, 144, 232, 189, 168, 230, 170, 0, 72, 163, 210, 129, 100, 56, 2, 57, 187, 19, 62, 190, 205, 163, 130, 190, 125, 204, 203, 189, 155, 184, 230, 0, 76, 164, 215, 129, 101, 56, 18, 57, 36, 25, 67, 190, 194, 182, 120, 190, 48, 181, 210, 189, 137, 230, 223, 0, 41, 159, 186, 129, 86, 56, 10, 57, 203, 201, 60, 190, 194, 182, 120, 62, 233, 144, 232, 189, 168, 26, 170, 0, 71, 95, 213, 127, 65, 42, 2, 57, 36, 25, 67, 190, 194, 182, 120, 62, 48, 181, 210, 189, 137, 26, 223, 0, 39, 107, 201, 127, 101, 41, 10, 57, 186, 19, 62, 190, 205, 163, 130, 62, 125, 204, 203, 189, 155, 72, 230, 0, 76, 91, 213, 127, 85, 42, 18, 57, 56, 73, 55, 62, 205, 163, 130, 190, 223, 82, 227, 189, 73, 184, 182, 0, 160, 241, 176, 127, 186, 58, 0, 56, 69, 80, 217, 59, 205, 163, 130, 190, 175, 143, 87, 190, 27, 184, 156, 0, 138, 15, 213, 127, 239, 59, 0, 56, 77, 80, 217, 59, 205, 163, 130, 62, 176, 143, 87, 190, 27, 72, 156, 0, 138, 241, 213, 127, 239, 59, 0, 0, 56, 73, 55, 62, 205, 163, 130, 62, 222, 82, 227, 189, 73, 72, 182, 0, 160, 15, 176, 127, 186, 58, 0, 0, 22, 235, 201, 59, 194, 182, 120, 62, 15, 163, 93, 190, 30, 26, 136, 0, 133, 6, 226, 127, 0, 0, 73, 31, 20, 235, 201, 59, 194, 182, 120, 190, 15, 163, 93, 190, 30, 230, 136, 0, 133, 250, 226, 127, 0, 0, 226, 55, 187, 19, 62, 62, 205, 163, 130, 190, 130, 204, 203, 61, 101, 184, 26, 0, 74, 102, 251, 129, 158, 59, 222, 58, 187, 19, 62, 62, 205, 163, 130, 190, 130, 204, 203, 61, 101, 184, 26, 0, 21, 241, 132, 127, 101, 57, 0, 56, 186, 19, 62, 62, 205, 163, 130, 190, 127, 204, 203, 189, 101, 184, 230, 0, 235, 15, 132, 127, 154, 58, 0, 56, 186, 19, 62, 62, 205, 163, 130, 62, 130, 204, 203, 61, 101, 72, 26, 0, 21, 15, 132, 127, 101, 57, 0, 0, 187, 19, 62, 62, 205, 163, 130, 62, 127, 204, 203, 189, 101, 72, 230, 0, 235, 241, 132, 127, 154, 58, 0, 0, 39, 80, 217, 59, 205, 163, 130, 190, 176, 143, 87, 62, 27, 184, 100, 0, 118, 241, 213, 127, 16, 56, 0, 56, 56, 73, 55, 62, 205, 163, 130, 190, 224, 82, 227, 61, 73, 184, 74, 0, 96, 15, 176, 127, 69, 57, 0, 56, 32, 80, 217, 59, 205, 163, 130, 62, 176, 143, 87, 62, 27, 72, 100, 0, 118, 15, 213, 127, 16, 56, 0, 0, 56, 73, 55, 62, 205, 163, 130, 62, 226, 82, 227, 61, 73, 72, 74, 0, 96, 241, 176, 127, 69, 57, 0, 0, 56, 73, 55, 190, 205, 163, 130, 190, 221, 82, 227, 61, 183, 184, 74, 0, 96, 241, 80, 127, 117, 53, 0, 56, 110, 80, 217, 187, 205, 163, 130, 190, 175, 143, 87, 62, 229, 184, 100, 0, 118, 15, 43, 127, 223, 55, 0, 56, 118, 80, 217, 187, 205, 163, 130, 62, 176, 143, 87, 62, 229, 72, 100, 0, 118, 241, 43, 127, 223, 55, 0, 0, 56, 73, 55, 190, 205, 163, 130, 62, 220, 82, 227, 61, 183, 72, 74, 0, 96, 15, 80, 127, 117, 53, 0, 0, 187, 19, 62, 190, 205, 163, 130, 190, 125, 204, 203, 189, 155, 184, 230, 0, 235, 241, 124, 127, 150, 49, 0, 56, 186, 19, 62, 190, 205, 163, 130, 190, 125, 204, 203, 61, 155, 184, 26, 0, 21, 15, 124, 127, 52, 53, 0, 56, 186, 19, 62, 190, 205, 163, 130, 62, 125, 204, 203, 189, 155, 72, 230, 0, 235, 15, 124, 127, 150, 49, 0, 0, 187, 19, 62, 190, 205, 163, 130, 62, 125, 204, 203, 61, 155, 72, 26, 0, 21, 241, 124, 127, 52, 53, 0, 0, 77, 80, 217, 187, 205, 163, 130, 190, 176, 143, 87, 190, 229, 184, 156, 0, 138, 241, 43, 127, 17, 32, 0, 56, 56, 73, 55, 190, 205, 163, 130, 190, 220, 82, 227, 189, 183, 184, 182, 0, 160, 15, 80, 127, 20, 49, 0, 56, 66, 80, 217, 187, 205, 163, 130, 62, 175, 143, 87, 190, 229, 72, 156, 0, 138, 15, 43, 127, 17, 32, 0, 0, 56, 73, 55, 190, 205, 163, 130, 62, 221, 82, 227, 189, 183, 72, 182, 0, 160, 241, 80, 127, 20, 49, 0, 0 ),
"array_index_data": PoolByteArray( 0, 0, 2, 0, 1, 0, 3, 0, 5, 0, 4, 0, 6, 0, 8, 0, 7, 0, 6, 0, 9, 0, 8, 0, 10, 0, 12, 0, 11, 0, 13, 0, 15, 0, 14, 0, 16, 0, 18, 0, 17, 0, 16, 0, 19, 0, 18, 0, 20, 0, 22, 0, 21, 0, 23, 0, 25, 0, 24, 0, 26, 0, 28, 0, 27, 0, 26, 0, 29, 0, 28, 0, 30, 0, 32, 0, 31, 0, 33, 0, 35, 0, 34, 0, 36, 0, 38, 0, 37, 0, 36, 0, 39, 0, 38, 0, 40, 0, 42, 0, 41, 0, 43, 0, 45, 0, 44, 0, 43, 0, 46, 0, 45, 0, 47, 0, 49, 0, 48, 0, 50, 0, 52, 0, 51, 0, 53, 0, 55, 0, 54, 0, 53, 0, 56, 0, 55, 0, 30, 0, 10, 0, 40, 0, 30, 0, 57, 0, 10, 0, 20, 0, 57, 0, 30, 0, 20, 0, 0, 0, 57, 0, 3, 0, 47, 0, 50, 0, 3, 0, 33, 0, 47, 0, 3, 0, 23, 0, 33, 0, 13, 0, 23, 0, 3, 0, 58, 0, 42, 0, 59, 0, 58, 0, 60, 0, 42, 0, 61, 0, 63, 0, 62, 0, 61, 0, 48, 0, 63, 0, 64, 0, 66, 0, 65, 0, 64, 0, 67, 0, 66, 0, 5, 0, 69, 0, 68, 0, 5, 0, 70, 0, 69, 0, 71, 0, 72, 0, 1, 0, 71, 0, 73, 0, 72, 0, 15, 0, 75, 0, 74, 0, 15, 0, 76, 0, 75, 0, 77, 0, 78, 0, 21, 0, 77, 0, 79, 0, 78, 0, 25, 0, 81, 0, 80, 0, 25, 0, 82, 0, 81, 0, 83, 0, 84, 0, 31, 0, 83, 0, 85, 0, 84, 0, 35, 0, 87, 0, 86, 0, 35, 0, 88, 0, 87, 0, 89, 0, 90, 0, 41, 0, 89, 0, 91, 0, 90, 0, 49, 0, 93, 0, 92, 0, 49, 0, 94, 0, 93, 0, 65, 0, 10, 0, 57, 0, 65, 0, 12, 0, 10, 0, 11, 0, 40, 0, 10, 0, 11, 0, 42, 0, 40, 0, 44, 0, 96, 0, 95, 0, 44, 0, 45, 0, 96, 0, 50, 0, 48, 0, 52, 0, 50, 0, 47, 0, 48, 0, 3, 0, 51, 0, 5, 0, 3, 0, 50, 0, 51, 0, 43, 0, 97, 0, 46, 0, 98, 0, 97, 0, 43, 0, 99, 0, 7, 0, 100, 0, 99, 0, 6, 0, 7, 0, 56, 0, 44, 0, 55, 0, 56, 0, 43, 0, 44, 0, 0, 0, 101, 0, 57, 0, 1, 0, 101, 0, 0, 0, 54, 0, 103, 0, 102, 0, 54, 0, 55, 0, 103, 0, 13, 0, 4, 0, 15, 0, 13, 0, 3, 0, 4, 0, 104, 0, 56, 0, 53, 0, 104, 0, 105, 0, 56, 0, 19, 0, 54, 0, 18, 0, 19, 0, 53, 0, 54, 0, 21, 0, 0, 0, 20, 0, 21, 0, 2, 0, 0, 0, 106, 0, 18, 0, 107, 0, 17, 0, 18, 0, 106, 0, 23, 0, 14, 0, 25, 0, 23, 0, 13, 0, 14, 0, 108, 0, 19, 0, 16, 0, 108, 0, 109, 0, 19, 0, 29, 0, 17, 0, 28, 0, 29, 0, 16, 0, 17, 0, 31, 0, 20, 0, 30, 0, 31, 0, 22, 0, 20, 0, 27, 0, 111, 0, 110, 0, 27, 0, 28, 0, 111, 0, 33, 0, 24, 0, 35, 0, 33, 0, 23, 0, 24, 0, 26, 0, 112, 0, 29, 0, 113, 0, 112, 0, 26, 0, 39, 0, 27, 0, 38, 0, 39, 0, 26, 0, 27, 0, 40, 0, 32, 0, 30, 0, 41, 0, 32, 0, 40, 0, 114, 0, 38, 0, 115, 0, 37, 0, 38, 0, 114, 0, 47, 0, 34, 0, 49, 0, 47, 0, 33, 0, 34, 0, 116, 0, 39, 0, 36, 0, 116, 0, 117, 0, 39, 0, 9, 0, 37, 0, 8, 0, 9, 0, 36, 0, 37, 0, 118, 0, 8, 0, 119, 0, 7, 0, 8, 0, 118, 0, 120, 0, 9, 0, 6, 0, 120, 0, 121, 0, 9, 0, 57, 0, 101, 0, 65, 0 ),
"blend_shape_data": [  ],
"format": 97559,
"index_count": 348,
"primitive": 4,
"skeleton_aabb": [  ],
"vertex_count": 122
}

[sub_resource type="Gradient" id=11]
offsets = PoolRealArray( 0, 0.205438, 0.253776, 0.407855, 0.570997 )
colors = PoolColorArray( 0.588235, 0, 0.886275, 1, 0.6315, 0.589844, 1, 1, 1, 1, 1, 1, 0.335938, 0, 1, 1, 0.588837, 0, 0.886719, 1 )

[sub_resource type="GradientTexture" id=12]
gradient = SubResource( 11 )

[sub_resource type="ShaderMaterial" id=13]
shader = ExtResource( 1 )
shader_param/Gradient = SubResource( 12 )

[sub_resource type="Animation" id=14]
length = 10.0
loop = true
tracks/0/type = "value"
tracks/0/path = NodePath("Rotation:rotation_degrees")
tracks/0/interp = 1
tracks/0/loop_wrap = true
tracks/0/imported = false
tracks/0/enabled = true
tracks/0/keys = {
"times": PoolRealArray( 0, 10 ),
"transitions": PoolRealArray( 1, 1 ),
"update": 0,
"values": [ Vector3( 0, 0, 0 ), Vector3( 0, -360, 0 ) ]
}

[sub_resource type="BoxShape" id=15]
extents = Vector3( 0.2, 0.2, 0.2 )

[sub_resource type="BoxShape" id=16]
extents = Vector3( 0.21, 0.4, 0.21 )

[sub_resource type="BoxShape" id=17]
extents = Vector3( 0.25, 0.5, 0.25 )

[sub_resource type="BoxShape" id=18]
extents = Vector3( 0.3, 0.5, 0.3 )

[node name="MoneyPickup" type="RigidBody"]
collision_layer = 32
collision_mask = 17
physics_material_override = SubResource( 1 )
axis_lock_linear_z = true
axis_lock_angular_x = true
axis_lock_angular_y = true
axis_lock_angular_z = true
script = ExtResource( 2 )

[node name="Rotation" type="Spatial" parent="."]

[node name="SmallCrystal" type="MeshInstance" parent="Rotation"]
transform = Transform( 0.833315, 0, 0.552798, 0, 1, 0, -0.552798, 0, 0.833315, 0, 0.0373988, 0 )
visible = false
mesh = SubResource( 2 )
material/0 = SubResource( 5 )

[node name="MedCrystal" type="MeshInstance" parent="Rotation"]
visible = false
mesh = SubResource( 6 )
material/0 = SubResource( 9 )

[node name="BigCrystal" type="MeshInstance" parent="Rotation"]
visible = false
mesh = SubResource( 10 )
material/0 = SubResource( 13 )

[node name="AnimationPlayer" type="AnimationPlayer" parent="."]
autoplay = "Rotate"
anims/Rotate = SubResource( 14 )

[node name="SmallCollision" type="CollisionShape" parent="."]
visible = false
shape = SubResource( 15 )
disabled = true

[node name="MedCollision" type="CollisionShape" parent="."]
visible = false
shape = SubResource( 16 )
disabled = true

[node name="BigCollision" type="CollisionShape" parent="."]
visible = false
shape = SubResource( 17 )
disabled = true

[node name="Sprite3D" type="Sprite3D" parent="."]
pixel_size = 0.015
billboard = 1
double_sided = false
texture = ExtResource( 3 )

[node name="CollectionArea" type="Area" parent="."]
collision_layer = 32
collision_mask = 2

[node name="CollisionShape" type="CollisionShape" parent="CollectionArea"]
shape = SubResource( 18 )
[connection signal="body_entered" from="CollectionArea" to="." method="_on_CollectionArea_body_entered"]
